{
  "page": 1,
  "total_results": 46,
  "total_pages": 3,
  "results": [
      {
          "popularity": 13.997,
          "vote_count": 1215,
          "video": false,
          "poster_path": "/afkYP15OeUOD0tFEmj6VvejuOcz.jpg",
          "id": 858,
          "adult": false,
          "backdrop_path": "/p3G0VLxXu9AK0WXXsGrjfXr9wrA.jpg",
          "original_language": "en",
          "original_title": "Sleepless in Seattle",
          "genre_ids": [
              35,
              18,
              10749
          ],
          "title": "Sleepless in Seattle",
          "vote_average": 6.7,
          "overview": "A young boy who tries to set his dad up on a date after the death of his mother. He calls into a radio station to talk about his dad's loneliness which soon leads the dad into meeting a journalist, Annie who flies to Seattle, to write a story about the boy and his dad. Yet Annie ends up with more than just a story in this popular romantic comedy.",
          "release_date": "1993-06-24"
      },
      {
          "popularity": 9.115,
          "id": 13177,
          "video": false,
          "vote_count": 119,
          "vote_average": 6.4,
          "title": "Battle in Seattle",
          "release_date": "2008-03-09",
          "original_language": "en",
          "original_title": "Battle in Seattle",
          "genre_ids": [
              28,
              18
          ],
          "backdrop_path": "/2hbqw7jLnVjh7faSK6ocsBguXFi.jpg",
          "adult": false,
          "overview": "Thousands of activists arrive in Seattle, Washington in masses to protest the WTO Ministerial Conference of 1999 (World Trade Organization). Although it began as a peaceful protest with a goal of stopping the WTO talks, it escalated into a full-scale riot and eventually, a State of Emergency that pitted protesters against the Seattle Police Department and the National Guard.",
          "poster_path": "/s5NJ34KJ1da3JtoCTDV7wnbcD3e.jpg"
      },
      {
          "popularity": 3.294,
          "id": 107100,
          "video": false,
          "vote_count": 18,
          "vote_average": 3.6,
          "title": "Seattle Superstorm",
          "release_date": "2012-03-31",
          "original_language": "en",
          "original_title": "Seattle Superstorm",
          "genre_ids": [
              28,
              878
          ],
          "backdrop_path": "/tfxzrp1myGDKl30FTozuJW7cR7X.jpg",
          "adult": false,
          "overview": "An object is shot down over Seattle and the debris begins to effect the local weather ultimately threatening the whole world.",
          "poster_path": "/3s9FzbLxDG6EOW1C82cf8LXNSrI.jpg"
      },
      {
          "popularity": 1.4,
          "id": 560271,
          "video": false,
          "vote_count": 0,
          "vote_average": 0,
          "title": "Seattle",
          "release_date": "2018-04-13",
          "original_language": "es",
          "original_title": "Seattle",
          "genre_ids": [
              10749,
              18
          ],
          "backdrop_path": null,
          "adult": false,
          "overview": "Seattle is a love story between Iván, a pilot, and Amanda, a stewardess, through their meetings in hotels around the world.",
          "poster_path": "/xzOpdTYpU9hRqo7EPtNOJCgFRDR.jpg"
      },
      {
          "popularity": 0.667,
          "id": 152785,
          "video": false,
          "vote_count": 1,
          "vote_average": 6,
          "title": "Led Zeppelin - Seattle 1977",
          "release_date": "1977-06-10",
          "original_language": "en",
          "original_title": "Led Zeppelin - Seattle 1977",
          "genre_ids": [],
          "backdrop_path": "/4L2JIbOc0siYctixXfMCYkF2BVz.jpg",
          "adult": false,
          "overview": "",
          "poster_path": "/eid1QbDxo0v40szYHPgS4mnoxnr.jpg"
      },
      {
          "popularity": 1.4,
          "id": 396237,
          "video": false,
          "vote_count": 1,
          "vote_average": 1,
          "title": "Seattle Road",
          "release_date": "2016-06-24",
          "original_language": "en",
          "original_title": "Seattle Road",
          "genre_ids": [
              18,
              10749
          ],
          "backdrop_path": null,
          "adult": false,
          "overview": "Two young artists use love as a safety net against the fear and pain in their lives in order to propel them deeper into their art.",
          "poster_path": "/rIpqMMkQkYyKqUxSICUSeayx5ir.jpg"
      },
      {
          "popularity": 3.423,
          "vote_count": 16,
          "video": false,
          "poster_path": "/wKEGwRmv7mAPaQ00bpIPvr8KROq.jpg",
          "id": 449359,
          "adult": false,
          "backdrop_path": "/psfrTGyAFEuMQMct1m3IqECJkyk.jpg",
          "original_language": "en",
          "original_title": "Jo Koy: Live from Seattle",
          "genre_ids": [
              35
          ],
          "title": "Jo Koy: Live from Seattle",
          "vote_average": 7,
          "overview": "Between raising a teenage boy and growing up with a Filipino mother, stand-up comic Jo Koy has been through a lot. He's here to tell you all about it.",
          "release_date": "2017-03-28"
      },
      {
          "popularity": 1.551,
          "id": 600551,
          "video": false,
          "vote_count": 1,
          "vote_average": 10,
          "title": "Seattle is Dying",
          "release_date": "2019-03-14",
          "original_language": "en",
          "original_title": "Seattle is Dying",
          "genre_ids": [
              99
          ],
          "backdrop_path": "/mTU0GQZ2rZkLnFQBTTE5omA1bmZ.jpg",
          "adult": false,
          "overview": "A look at the problems in Seattle",
          "poster_path": "/9N3k0rqil1E2KtI1NTzV8RdXjKj.jpg"
      },
      {
          "popularity": 0.6,
          "id": 211307,
          "video": true,
          "vote_count": 0,
          "vote_average": 0,
          "title": "PilotsEYE.tv Seattle",
          "release_date": "2009-06-19",
          "original_language": "de",
          "original_title": "PilotsEYE.tv Seattle",
          "genre_ids": [
              99
          ],
          "backdrop_path": "/rRMprSgBS81SEiBv7IWnRTAhpzD.jpg",
          "adult": false,
          "overview": "",
          "poster_path": "/7p9AuiSA0WAyG5FbQfKXESpDCOK.jpg"
      },
      {
          "popularity": 2.668,
          "id": 47811,
          "video": false,
          "vote_count": 3,
          "vote_average": 5.7,
          "title": "Heart: Alive in Seattle",
          "release_date": "2003-04-29",
          "original_language": "en",
          "original_title": "Heart: Alive in Seattle",
          "genre_ids": [
              10402
          ],
          "backdrop_path": "/dF7PUYfeg3VkpIBUF5PpeRx9ODD.jpg",
          "adult": false,
          "overview": "The Wilson sisters (1980s glam rockers with such hits as \"Alone\" and \"These Dreams\") make a triumphant return to their hometown of Seattle. The city, oddly enough, spawned the grunge movement in the early '90s and killed off many of the '80s metal bands. A career-spanning selection of material in this concert includes early classics such as \"Barracuda\" and \"Crazy on You,\" alongside more recent material.",
          "poster_path": "/9xE4AS7qMmbSLbCOcGjTWDEqNNe.jpg"
      },
      {
          "popularity": 3.903,
          "id": 163999,
          "video": false,
          "vote_count": 4,
          "vote_average": 5.3,
          "title": "Those Redheads from Seattle",
          "release_date": "1953-10-16",
          "original_language": "en",
          "original_title": "Those Redheads from Seattle",
          "genre_ids": [
              37
          ],
          "backdrop_path": "/g6x1Mb5itXRFodRcM6ZMG0RirWN.jpg",
          "adult": false,
          "overview": "A woman takes her four beautiful daughters to Alaska during the Gold Rush to find their fortune.",
          "poster_path": "/5qzUfbAFJOvbAMtW2fdAh2cWuxg.jpg"
      },
      {
          "popularity": 0.6,
          "id": 486302,
          "video": false,
          "vote_count": 1,
          "vote_average": 10,
          "title": "PilotsEYE.tv Seattle 777F",
          "release_date": "2015-09-10",
          "original_language": "de",
          "original_title": "PilotsEYE.tv Seattle 777F",
          "genre_ids": [],
          "backdrop_path": "/phjvVACgkFw5Q5axKPx6cRbijtm.jpg",
          "adult": false,
          "overview": "",
          "poster_path": "/7ahyw8Vqi7Q9M4CPSaKDBq1BUx8.jpg"
      },
      {
          "popularity": 0.6,
          "id": 351625,
          "video": false,
          "vote_count": 0,
          "vote_average": 0,
          "title": "Seattle Solstice",
          "release_date": "2008-01-01",
          "original_language": "en",
          "original_title": "Seattle Solstice",
          "genre_ids": [],
          "backdrop_path": null,
          "adult": false,
          "overview": "Mapping a Seattle landscape as the season turns, this film is an optical print of original handmade frames. Featuring hydrangea, geranium, nandina, camillia, oregano, vinca, snapdragon, cyclamen, violet, linden, clematis, linaria, birch bark and daphne. Music by Bay Area composer, arranger, and jazz bassist Chuck Metcalf used with permission.",
          "poster_path": "/jWYgAD506XOTnKKWqFBlFKRoJYa.jpg"
      },
      {
          "popularity": 0.6,
          "id": 270790,
          "video": false,
          "vote_count": 0,
          "vote_average": 0,
          "title": "Blackalicious - 4/20 Live in Seattle",
          "release_date": "2006-01-01",
          "original_language": "en",
          "original_title": "Blackalicious - 4/20 Live in Seattle",
          "genre_ids": [],
          "backdrop_path": null,
          "adult": false,
          "overview": "On 4/20/06, Blackalicious and 1200 fiends from the Pacific Northwest piled into Seattles heralded Showbox Theater to capture some boombastic moments in time. Gift of Gab and Chief Xcel, alongside their incomparable supporting cast, deliver a legendary performance sure to go down in hip hop history. Joining them as part of this 45-day tour was Lateef, Pigeon John, LifeSavas and Fat Lip of the Pharcyde.",
          "poster_path": null
      },
      {
          "popularity": 0.6,
          "id": 530359,
          "video": false,
          "vote_count": 0,
          "vote_average": 0,
          "title": "Return to Seattle",
          "release_date": "",
          "original_language": "en",
          "original_title": "Return to Seattle",
          "genre_ids": [
              18
          ],
          "backdrop_path": null,
          "adult": false,
          "overview": "A man returns to Seattle and rediscovers his hometown through nature. Filmed throughout Seattle and the Pacific Northwest, including Mount Rainier National Park, Olympic National Park and North Cascades National Park.",
          "poster_path": "/3HNfGDxg1dlRWm4SB4svWvll61E.jpg"
      },
      {
          "popularity": 0.6,
          "id": 273512,
          "video": false,
          "vote_count": 0,
          "vote_average": 0,
          "title": "Seattle Komedy Dokumentary",
          "release_date": "",
          "original_language": "en",
          "original_title": "Seattle Komedy Dokumentary",
          "genre_ids": [],
          "backdrop_path": null,
          "adult": false,
          "overview": "In 2007, Seattle was at the epicenter of an amazing stand-up comedy movement. This documentary follows the very recent rise, fall and rebirth of the alternative comedy scene and proves that Seattle is many things. One of those things is a place where great players get their start.",
          "poster_path": null
      },
      {
          "popularity": 1.108,
          "id": 283153,
          "video": false,
          "vote_count": 0,
          "vote_average": 0,
          "title": "Super Bowl XLVIII Champions: Seattle Seahawks",
          "release_date": "2014-03-04",
          "original_language": "en",
          "original_title": "Super Bowl XLVIII Champions: Seattle Seahawks",
          "genre_ids": [
              99
          ],
          "backdrop_path": "/ecXNIcOhVZE6L1kOaiVRTbN24HO.jpg",
          "adult": false,
          "overview": "NFL Films takes you down the sidelines, on the field and into the locker room with exclusive access to all the vivid sounds and images of every game in the memorable 2013-2014 season of the Championship team coupled with exciting extra content detailing stores from the year, media day at Super Bowl XLVIII, and the thrilling Lombardi Trophy Presentation.",
          "poster_path": "/pobjeoshOXgabRqoBbRipvfvMnO.jpg"
      },
      {
          "popularity": 4.647,
          "id": 434084,
          "video": false,
          "vote_count": 3,
          "vote_average": 10,
          "title": "Metallica - Live Shit: Binge & Purge (Seattle 1989)",
          "release_date": "1993-11-23",
          "original_language": "en",
          "original_title": "Metallica - Live Shit: Binge & Purge (Seattle 1989)",
          "genre_ids": [
              10402
          ],
          "backdrop_path": "/jTP7xMsGwhGtW1dk3DXxQXjdy3E.jpg",
          "adult": false,
          "overview": "Live concert from the \"Damaged Justice\" tour. Recorded at the Seattle Coliseum, Seattle, WA, on August 29, 30, 1989",
          "poster_path": "/qnnoNxK1fPBA7Po7puq6u8lrVaE.jpg"
      },
      {
          "popularity": 0.6,
          "id": 383594,
          "video": false,
          "vote_count": 1,
          "vote_average": 9,
          "title": "The Seattle Pilots: Short Flight Into History",
          "release_date": "2010-01-01",
          "original_language": "en",
          "original_title": "The Seattle Pilots: Short Flight Into History",
          "genre_ids": [
              99,
              36
          ],
          "backdrop_path": null,
          "adult": false,
          "overview": "Documentary profiling the Seattle Pilots, a one year (1969) major league baseball team, featuring interviews with many involved with the team, who discuss its short history in detail.",
          "poster_path": "/t5EQNohhzuOT19Bp7RQYVpIwh5R.jpg"
      },
      {
          "popularity": 0.6,
          "id": 394505,
          "video": false,
          "vote_count": 0,
          "vote_average": 0,
          "title": "Sanctuary: [2014] Seattle, Washington",
          "release_date": "2014-11-14",
          "original_language": "en",
          "original_title": "Sanctuary: [2014] Seattle, Washington",
          "genre_ids": [],
          "backdrop_path": "/xq0cJXWpYM2dle8y7ct0Fm5jsqG.jpg",
          "adult": false,
          "overview": "Sanctuary at Studio Seven, Seattle, WA, USA  The Year the Sun Died CD release show  Ad Vitam Aeternam\r Arise and Purify\r Let the Serpent Follow Me\r Seasons of Destruction\r Die for My Sins\r Battle Angels\r White Rabbit\r The Mirror Black",
          "poster_path": "/n7q0HNqi9YUN4utRrvrDn32us7N.jpg"
      }
  ]
}